{
  "expand": "schema,names",
  "startAt": 0,
  "maxResults": 2,
  "total": 3,
  "issues": [
    {
      "expand": "operations,versionedRepresentations,editmeta,changelog,renderedFields",
      "id": "10002",
      "self": "https://example29nov.atlassian.net/rest/api/3/issue/10002",
      "key": "AK-3",
      "fields": {
        "attachment": [
          {
            "self": "https://example29nov.atlassian.net/rest/api/3/attachment/10003",
            "id": "10003",
            "filename": "image.png",
            "author": {
              "self": "https://example29nov.atlassian.net/rest/api/3/user?accountId=557057%3Ad90de407-9bc4-4cd6-a4c4-16ba6ab2787b",
              "name": "admin",
              "key": "admin",
              "accountId": "557057:d90de407-9bc4-4cd6-a4c4-16ba6ab2787b",
              "emailAddress": "kyamamoto@atlassian.com",
              "avatarUrls": {
                "48x48": "https://avatar-cdn.atlassian.com/35f88c25d3368295b39b2bb3bbbb3f39?s=48&d=https%3A%2F%2Fsecure.gravatar.com%2Favatar%2F35f88c25d3368295b39b2bb3bbbb3f39%3Fd%3Dmm%26s%3D48%26noRedirect%3Dtrue",
                "24x24": "https://avatar-cdn.atlassian.com/35f88c25d3368295b39b2bb3bbbb3f39?s=24&d=https%3A%2F%2Fsecure.gravatar.com%2Favatar%2F35f88c25d3368295b39b2bb3bbbb3f39%3Fd%3Dmm%26s%3D24%26noRedirect%3Dtrue",
                "16x16": "https://avatar-cdn.atlassian.com/35f88c25d3368295b39b2bb3bbbb3f39?s=16&d=https%3A%2F%2Fsecure.gravatar.com%2Favatar%2F35f88c25d3368295b39b2bb3bbbb3f39%3Fd%3Dmm%26s%3D16%26noRedirect%3Dtrue",
                "32x32": "https://avatar-cdn.atlassian.com/35f88c25d3368295b39b2bb3bbbb3f39?s=32&d=https%3A%2F%2Fsecure.gravatar.com%2Favatar%2F35f88c25d3368295b39b2bb3bbbb3f39%3Fd%3Dmm%26s%3D32%26noRedirect%3Dtrue"
              },
              "displayName": "Kenta Yamamoto",
              "active": true,
              "timeZone": "Asia/Tokyo"
            },
            "created": "2018-12-16T14:09:39.744+0900",
            "size": 430250,
            "mimeType": "image/png",
            "content": "https://example29nov.atlassian.net/secure/attachment/10003/image.png",
            "thumbnail": "https://example29nov.atlassian.net/secure/thumbnail/10003/image.png"
          },
          {
            "self": "https://example29nov.atlassian.net/rest/api/3/attachment/10004",
            "id": "10004",
            "filename": "image (f6650a92-4ffe-4f06-bc63-955263a0b242).png",
            "author": {
              "self": "https://example29nov.atlassian.net/rest/api/3/user?accountId=557057%3Ad90de407-9bc4-4cd6-a4c4-16ba6ab2787b",
              "name": "admin",
              "key": "admin",
              "accountId": "557057:d90de407-9bc4-4cd6-a4c4-16ba6ab2787b",
              "emailAddress": "kyamamoto@atlassian.com",
              "avatarUrls": {
                "48x48": "https://avatar-cdn.atlassian.com/35f88c25d3368295b39b2bb3bbbb3f39?s=48&d=https%3A%2F%2Fsecure.gravatar.com%2Favatar%2F35f88c25d3368295b39b2bb3bbbb3f39%3Fd%3Dmm%26s%3D48%26noRedirect%3Dtrue",
                "24x24": "https://avatar-cdn.atlassian.com/35f88c25d3368295b39b2bb3bbbb3f39?s=24&d=https%3A%2F%2Fsecure.gravatar.com%2Favatar%2F35f88c25d3368295b39b2bb3bbbb3f39%3Fd%3Dmm%26s%3D24%26noRedirect%3Dtrue",
                "16x16": "https://avatar-cdn.atlassian.com/35f88c25d3368295b39b2bb3bbbb3f39?s=16&d=https%3A%2F%2Fsecure.gravatar.com%2Favatar%2F35f88c25d3368295b39b2bb3bbbb3f39%3Fd%3Dmm%26s%3D16%26noRedirect%3Dtrue",
                "32x32": "https://avatar-cdn.atlassian.com/35f88c25d3368295b39b2bb3bbbb3f39?s=32&d=https%3A%2F%2Fsecure.gravatar.com%2Favatar%2F35f88c25d3368295b39b2bb3bbbb3f39%3Fd%3Dmm%26s%3D32%26noRedirect%3Dtrue"
              },
              "displayName": "Kenta Yamamoto",
              "active": true,
              "timeZone": "Asia/Tokyo"
            },
            "created": "2018-12-16T14:09:39.994+0900",
            "size": 55194,
            "mimeType": "image/png",
            "content": "https://example29nov.atlassian.net/secure/attachment/10004/image+%28f6650a92-4ffe-4f06-bc63-955263a0b242%29.png",
            "thumbnail": "https://example29nov.atlassian.net/secure/thumbnail/10004/image+%28f6650a92-4ffe-4f06-bc63-955263a0b242%29.png"
          }
        ]
      }
    },
    {
      "expand": "operations,versionedRepresentations,editmeta,changelog,renderedFields",
      "id": "10001",
      "self": "https://example29nov.atlassian.net/rest/api/3/issue/10001",
      "key": "AK-2",
      "fields": {
        "attachment": [
          {
            "self": "https://example29nov.atlassian.net/rest/api/3/attachment/10002",
            "id": "10002",
            "filename": "CavernousEducatedCormorant-size_restricted.gif",
            "author": {
              "self": "https://example29nov.atlassian.net/rest/api/3/user?accountId=557057%3Ad90de407-9bc4-4cd6-a4c4-16ba6ab2787b",
              "name": "admin",
              "key": "admin",
              "accountId": "557057:d90de407-9bc4-4cd6-a4c4-16ba6ab2787b",
              "emailAddress": "kyamamoto@atlassian.com",
              "avatarUrls": {
                "48x48": "https://avatar-cdn.atlassian.com/35f88c25d3368295b39b2bb3bbbb3f39?s=48&d=https%3A%2F%2Fsecure.gravatar.com%2Favatar%2F35f88c25d3368295b39b2bb3bbbb3f39%3Fd%3Dmm%26s%3D48%26noRedirect%3Dtrue",
                "24x24": "https://avatar-cdn.atlassian.com/35f88c25d3368295b39b2bb3bbbb3f39?s=24&d=https%3A%2F%2Fsecure.gravatar.com%2Favatar%2F35f88c25d3368295b39b2bb3bbbb3f39%3Fd%3Dmm%26s%3D24%26noRedirect%3Dtrue",
                "16x16": "https://avatar-cdn.atlassian.com/35f88c25d3368295b39b2bb3bbbb3f39?s=16&d=https%3A%2F%2Fsecure.gravatar.com%2Favatar%2F35f88c25d3368295b39b2bb3bbbb3f39%3Fd%3Dmm%26s%3D16%26noRedirect%3Dtrue",
                "32x32": "https://avatar-cdn.atlassian.com/35f88c25d3368295b39b2bb3bbbb3f39?s=32&d=https%3A%2F%2Fsecure.gravatar.com%2Favatar%2F35f88c25d3368295b39b2bb3bbbb3f39%3Fd%3Dmm%26s%3D32%26noRedirect%3Dtrue"
              },
              "displayName": "Kenta Yamamoto",
              "active": true,
              "timeZone": "Asia/Tokyo"
            },
            "created": "2018-12-16T13:58:51.949+0900",
            "size": 1437048,
            "mimeType": "image/gif",
            "content": "https://example29nov.atlassian.net/secure/attachment/10002/CavernousEducatedCormorant-size_restricted.gif",
            "thumbnail": "https://example29nov.atlassian.net/secure/thumbnail/10002/CavernousEducatedCormorant-size_restricted.gif"
          }
        ]
      }
    }
  ]
}
